<?xml version="1.0" encoding="UTF-8" ?>
<gpx version="1.0" creator="GPSLogger 80 - http://gpslogger.mendhak.com/" xmlns:xsi="http://www.w3.org/2001/XMLSchema-instance" xmlns="http://www.topografix.com/GPX/1/0" xsi:schemaLocation="http://www.topografix.com/GPX/1/0 http://www.topografix.com/GPX/1/0/gpx.xsd">
	<time>2016-11-10T10:37:06Z</time>
	<trk>
		<trkseg>
			<trkpt lat="51.0544155" lon="4.6686021"><time>2016-11-10T10:37:06Z</time><src>network</src></trkpt>
			<trkpt lat="51.05458714" lon="4.66920919"><ele>75.0</ele><time>2016-11-10T10:37:09Z</time><course>49.4</course><speed>4.43</speed><src>gps</src><sat>7</sat></trkpt>
			<trkpt lat="51.05471605" lon="4.66933685"><ele>73.0</ele><time>2016-11-10T10:37:12Z</time><course>45.9</course><speed>4.8402586</speed><geoidheight>47.0</geoidheight><src>gps</src><sat>12</sat><hdop>1.9</hdop><vdop>1.0</vdop><pdop>2.2</pdop></trkpt>
			<trkpt lat="51.05478128" lon="4.66939438"><ele>71.0</ele><time>2016-11-10T10:37:13Z</time><course>48.2</course><speed>4.721059</speed><geoidheight>47.0</geoidheight><src>gps</src><sat>12</sat><hdop>0.7</hdop><vdop>0.7</vdop><pdop>1.0</pdop></trkpt>
			<trkpt lat="51.0544155" lon="4.6686021"><time>2016-11-10T10:37:19Z</time><src>network</src></trkpt>
			<trkpt lat="51.05511059" lon="4.67000345"><ele>70.0</ele><time>2016-11-10T10:37:27Z</time><course>43.7</course><speed>3.9318316</speed><geoidheight>47.0</geoidheight><src>gps</src><sat>11</sat><hdop>1.2</hdop><vdop>0.9</vdop><pdop>1.5</pdop></trkpt>
			<trkpt lat="51.0541477" lon="4.6701903"><time>2016-11-10T10:37:28Z</time><src>network</src></trkpt>
			<trkpt lat="51.05523665" lon="4.67013553"><ele>74.0</ele><time>2016-11-10T10:37:30Z</time><course>35.2</course><speed>4.5601754</speed><geoidheight>47.0</geoidheight><src>gps</src><sat>7</sat><hdop>0.7</hdop><vdop>0.7</vdop><pdop>1.0</pdop></trkpt>
			<trkpt lat="51.05532534" lon="4.67022958"><ele>77.0</ele><time>2016-11-10T10:37:32Z</time><course>35.8</course><speed>4.9104986</speed><geoidheight>47.0</geoidheight><src>gps</src><sat>7</sat><hdop>2.2</hdop><vdop>1.0</vdop><pdop>2.4</pdop></trkpt>
			<trkpt lat="51.05545676" lon="4.67037042"><ele>77.0</ele><time>2016-11-10T10:37:36Z</time><course>33.8</course><speed>4.95</speed><geoidheight>47.0</geoidheight><src>gps</src><sat>8</sat><hdop>1.6</hdop><vdop>0.9</vdop><pdop>1.9</pdop></trkpt>
			<trkpt lat="51.0541477" lon="4.6701903"><time>2016-11-10T10:37:37Z</time><src>network</src></trkpt>
			<trkpt lat="51.05561243" lon="4.6705037"><ele>77.0</ele><time>2016-11-10T10:37:40Z</time><course>32.0</course><speed>4.670043</speed><geoidheight>47.0</geoidheight><src>gps</src><sat>4</sat><hdop>0.7</hdop><vdop>0.7</vdop><pdop>1.0</pdop></trkpt>
			<trkpt lat="51.0556902" lon="4.67058423"><ele>75.0</ele><time>2016-11-10T10:37:41Z</time><course>28.8</course><speed>4.6808653</speed><geoidheight>47.0</geoidheight><src>gps</src><sat>8</sat><hdop>1.6</hdop><vdop>1.0</vdop><pdop>1.9</pdop></trkpt>
			<trkpt lat="51.05576976" lon="4.67064656"><ele>75.0</ele><time>2016-11-10T10:37:44Z</time><course>29.7</course><speed>4.7300425</speed><geoidheight>47.0</geoidheight><src>gps</src><sat>8</sat><hdop>1.5</hdop><vdop>0.9</vdop><pdop>1.8</pdop></trkpt>
			<trkpt lat="51.05590342" lon="4.67075403"><ele>75.0</ele><time>2016-11-10T10:37:47Z</time><course>28.4</course><speed>4.7200103</speed><geoidheight>47.0</geoidheight><src>gps</src><sat>7</sat><hdop>1.6</hdop><vdop>1.0</vdop><pdop>1.9</pdop></trkpt>
			<trkpt lat="51.05599433" lon="4.67080114"><ele>75.0</ele><time>2016-11-10T10:37:49Z</time><course>20.8</course><speed>4.11</speed><geoidheight>47.0</geoidheight><src>gps</src><sat>6</sat><hdop>2.4</hdop><vdop>1.0</vdop><pdop>2.6</pdop></trkpt>
			<trkpt lat="51.05607034" lon="4.67094188"><ele>71.0</ele><time>2016-11-10T10:37:52Z</time><course>33.0</course><speed>4.2257304</speed><geoidheight>47.0</geoidheight><src>gps</src><sat>9</sat><hdop>2.4</hdop><vdop>1.0</vdop><pdop>2.6</pdop></trkpt>
			<trkpt lat="51.0561538" lon="4.67096519"><ele>71.0</ele><time>2016-11-10T10:37:54Z</time><course>14.4</course><speed>3.4700577</speed><geoidheight>47.0</geoidheight><src>gps</src><sat>9</sat><hdop>1.4</hdop><vdop>0.9</vdop><pdop>1.7</pdop></trkpt>
			<trkpt lat="51.05629237" lon="4.67102619"><ele>71.0</ele><time>2016-11-10T10:37:58Z</time><course>22.3</course><speed>4.5503955</speed><geoidheight>47.0</geoidheight><src>gps</src><sat>8</sat><hdop>1.3</hdop><vdop>0.9</vdop><pdop>1.6</pdop></trkpt>
			<trkpt lat="51.05637622" lon="4.67108887"><ele>73.0</ele><time>2016-11-10T10:38:01Z</time><course>24.6</course><speed>4.9206505</speed><geoidheight>47.0</geoidheight><src>gps</src><sat>6</sat><hdop>1.3</hdop><vdop>0.9</vdop><pdop>1.6</pdop></trkpt>
			<trkpt lat="51.0452792" lon="4.6548593"><time>2016-11-10T10:38:03Z</time><src>network</src></trkpt>
			<trkpt lat="51.05652208" lon="4.6712462"><ele>73.0</ele><time>2016-11-10T10:38:05Z</time><course>34.4</course><speed>5.5600357</speed><geoidheight>47.0</geoidheight><src>gps</src><sat>8</sat><hdop>1.4</hdop><vdop>0.9</vdop><pdop>1.6</pdop></trkpt>
			<trkpt lat="51.05689621" lon="4.67142733"><ele>74.0</ele><time>2016-11-10T10:38:11Z</time><course>357.6</course><speed>5.3400097</speed><geoidheight>47.0</geoidheight><src>gps</src><sat>10</sat><hdop>1.2</hdop><vdop>0.9</vdop><pdop>1.5</pdop></trkpt>
			<trkpt lat="51.05701717" lon="4.67137151"><ele>78.0</ele><time>2016-11-10T10:38:14Z</time><course>341.4</course><speed>5.100794</speed><geoidheight>47.0</geoidheight><src>gps</src><sat>8</sat><hdop>1.0</hdop><vdop>0.9</vdop><pdop>1.3</pdop></trkpt>
			<trkpt lat="51.05708234" lon="4.67130405"><ele>78.0</ele><time>2016-11-10T10:38:16Z</time><course>317.3</course><speed>4.9429245</speed><geoidheight>47.0</geoidheight><src>gps</src><sat>5</sat><hdop>1.9</hdop><vdop>1.0</vdop><pdop>2.1</pdop></trkpt>
			<trkpt lat="51.05712902" lon="4.67119948"><ele>80.0</ele><time>2016-11-10T10:38:18Z</time><course>315.5</course><speed>4.771268</speed><geoidheight>47.0</geoidheight><src>gps</src><sat>5</sat><hdop>1.3</hdop><vdop>0.9</vdop><pdop>1.6</pdop></trkpt>
			<trkpt lat="51.0508267" lon="4.6633025"><time>2016-11-10T10:38:20Z</time><src>network</src></trkpt>
			<trkpt lat="51.05725286" lon="4.67100269"><ele>75.0</ele><time>2016-11-10T10:38:23Z</time><course>320.8</course><speed>4.7606726</speed><geoidheight>47.0</geoidheight><src>gps</src><sat>5</sat><hdop>1.1</hdop><vdop>0.9</vdop><pdop>1.5</pdop></trkpt>
			<trkpt lat="51.05733411" lon="4.67093214"><ele>75.0</ele><time>2016-11-10T10:38:25Z</time><course>324.1</course><speed>4.6405277</speed><geoidheight>47.0</geoidheight><src>gps</src><hdop>3.4</hdop><vdop>0.9</vdop><pdop>3.5</pdop></trkpt>
			<trkpt lat="51.05738554" lon="4.67089895"><ele>72.0</ele><time>2016-11-10T10:38:27Z</time><course>327.3</course><speed>3.8013155</speed><geoidheight>47.0</geoidheight><src>gps</src><sat>7</sat><hdop>500.0</hdop><vdop>500.0</vdop><pdop>500.0</pdop></trkpt>
			<trkpt lat="51.0508267" lon="4.6633025"><time>2016-11-10T10:38:29Z</time><src>network</src></trkpt>
			<trkpt lat="51.0541477" lon="4.6701903"><time>2016-11-10T10:38:30Z</time><src>network</src></trkpt>
			<trkpt lat="51.0575426" lon="4.67077353"><ele>79.0</ele><time>2016-11-10T10:38:33Z</time><course>342.1</course><speed>2.7430823</speed><geoidheight>47.0</geoidheight><src>gps</src><sat>12</sat><hdop>1.4</hdop><vdop>1.0</vdop><pdop>1.7</pdop></trkpt>
			<trkpt lat="51.05761158" lon="4.67072434"><ele>83.0</ele><time>2016-11-10T10:38:35Z</time><course>326.5</course><speed>3.049016</speed><geoidheight>47.0</geoidheight><src>gps</src><sat>10</sat><hdop>1.0</hdop><vdop>0.9</vdop><pdop>1.3</pdop></trkpt>
			<trkpt lat="51.05767984" lon="4.67068493"><ele>78.0</ele><time>2016-11-10T10:38:38Z</time><course>332.8</course><speed>1.6701198</speed><geoidheight>47.0</geoidheight><src>gps</src><sat>9</sat><hdop>1.0</hdop><vdop>0.9</vdop><pdop>1.4</pdop></trkpt>
			<trkpt lat="51.0508267" lon="4.6633025"><time>2016-11-10T10:38:39Z</time><src>network</src></trkpt>
			<trkpt lat="51.05774156" lon="4.67060271"><ele>74.0</ele><time>2016-11-10T10:38:41Z</time><course>324.9</course><speed>3.0200164</speed><geoidheight>47.0</geoidheight><src>gps</src><sat>9</sat><hdop>1.0</hdop><vdop>0.9</vdop><pdop>1.3</pdop></trkpt>
			<trkpt lat="51.0577952" lon="4.67054715"><ele>75.0</ele><time>2016-11-10T10:38:44Z</time><course>329.1</course><speed>3.186283</speed><geoidheight>47.0</geoidheight><src>gps</src><sat>6</sat><hdop>1.2</hdop><vdop>0.9</vdop><pdop>1.5</pdop></trkpt>
			<trkpt lat="51.0508267" lon="4.6633025"><time>2016-11-10T10:38:49Z</time><src>network</src></trkpt>
			<trkpt lat="51.05797144" lon="4.67022685"><ele>80.0</ele><time>2016-11-10T10:38:53Z</time><course>297.2</course><speed>4.110012</speed><geoidheight>47.0</geoidheight><src>gps</src><sat>10</sat><hdop>2.0</hdop><vdop>1.0</vdop><pdop>2.2</pdop></trkpt>
			<trkpt lat="51.05799104" lon="4.67007703"><ele>80.0</ele><time>2016-11-10T10:38:54Z</time><course>298.2</course><speed>4.5105433</speed><geoidheight>47.0</geoidheight><src>gps</src><sat>8</sat><hdop>1.1</hdop><vdop>0.8</vdop><pdop>1.3</pdop></trkpt>
			<trkpt lat="51.05802057" lon="4.66995419"><ele>73.0</ele><time>2016-11-10T10:38:57Z</time><course>290.3</course><speed>4.140169</speed><geoidheight>47.0</geoidheight><src>gps</src><sat>8</sat><hdop>1.2</hdop><vdop>0.9</vdop><pdop>1.5</pdop></trkpt>
			<trkpt lat="51.0508267" lon="4.6633025"><time>2016-11-10T10:38:59Z</time><src>network</src></trkpt>
			<trkpt lat="51.05812566" lon="4.66956902"><ele>80.0</ele><time>2016-11-10T10:39:03Z</time><course>298.7</course><speed>4.3911386</speed><geoidheight>47.0</geoidheight><src>gps</src><sat>5</sat><hdop>2.1</hdop><vdop>1.0</vdop><pdop>2.4</pdop></trkpt>
			<trkpt lat="51.0541477" lon="4.6701903"><time>2016-11-10T10:38:59Z</time><src>network</src></trkpt>
			<trkpt lat="51.05820212" lon="4.66935323"><ele>86.0</ele><time>2016-11-10T10:39:07Z</time><course>296.1</course><speed>4.413672</speed><geoidheight>47.0</geoidheight><src>gps</src><sat>5</sat><hdop>1.5</hdop><vdop>0.9</vdop><pdop>1.7</pdop></trkpt>
			<trkpt lat="51.05828803" lon="4.66914842"><ele>88.0</ele><time>2016-11-10T10:39:09Z</time><course>301.8</course><speed>4.7006807</speed><geoidheight>47.0</geoidheight><src>gps</src><sat>5</sat><hdop>1.2</hdop><vdop>0.9</vdop><pdop>1.5</pdop></trkpt>
			<trkpt lat="51.05833963" lon="4.66898247"><ele>88.0</ele><time>2016-11-10T10:39:12Z</time><course>299.2</course><speed>4.8210373</speed><geoidheight>47.0</geoidheight><src>gps</src><sat>6</sat><hdop>0.9</hdop><vdop>0.8</vdop><pdop>1.2</pdop></trkpt>
			<trkpt lat="51.0452792" lon="4.6548593"><time>2016-11-10T10:39:17Z</time><src>network</src></trkpt>
			<trkpt lat="51.05850937" lon="4.66854382"><ele>95.0</ele><time>2016-11-10T10:39:20Z</time><course>302.6</course><speed>4.330289</speed><geoidheight>47.0</geoidheight><src>gps</src><sat>10</sat><hdop>1.3</hdop><vdop>1.0</vdop><pdop>1.6</pdop></trkpt>
			<trkpt lat="51.05855692" lon="4.66841751"><ele>95.0</ele><time>2016-11-10T10:39:22Z</time><course>298.9</course><speed>3.800013</speed><geoidheight>47.0</geoidheight><src>gps</src><sat>10</sat><hdop>1.0</hdop><vdop>0.9</vdop><pdop>1.3</pdop></trkpt>
			<trkpt lat="51.05861676" lon="4.668282"><ele>89.0</ele><time>2016-11-10T10:39:26Z</time><course>307.3</course><speed>3.2162244</speed><geoidheight>47.0</geoidheight><src>gps</src><sat>5</sat><hdop>1.4</hdop><vdop>1.0</vdop><pdop>1.7</pdop></trkpt>
			<trkpt lat="51.0508267" lon="4.6633025"><time>2016-11-10T10:39:27Z</time><src>network</src></trkpt>
			<trkpt lat="51.05870253" lon="4.66815014"><ele>90.0</ele><time>2016-11-10T10:39:29Z</time><course>301.2</course><speed>4.2705736</speed><geoidheight>47.0</geoidheight><src>gps</src><sat>10</sat><hdop>0.7</hdop><vdop>0.7</vdop><pdop>1.0</pdop></trkpt>
			<trkpt lat="51.05874737" lon="4.668002"><ele>87.0</ele><time>2016-11-10T10:39:31Z</time><course>293.9</course><speed>4.2937746</speed><geoidheight>47.0</geoidheight><src>gps</src><sat>10</sat><hdop>1.0</hdop><vdop>0.9</vdop><pdop>1.3</pdop></trkpt>
			<trkpt lat="51.0587786" lon="4.66787317"><ele>85.0</ele><time>2016-11-10T10:39:33Z</time><course>299.2</course><speed>4.550176</speed><geoidheight>47.0</geoidheight><src>gps</src><sat>7</sat><hdop>1.1</hdop><vdop>0.9</vdop><pdop>1.4</pdop></trkpt>
			<trkpt lat="51.0453064" lon="4.6623816"><time>2016-11-10T10:39:39Z</time><src>network</src></trkpt>
			<trkpt lat="51.05893048" lon="4.66738208"><ele>90.0</ele><time>2016-11-10T10:39:41Z</time><course>296.5</course><speed>4.9928946</speed><geoidheight>47.0</geoidheight><src>gps</src><sat>8</sat><hdop>0.8</hdop><vdop>0.8</vdop><pdop>1.2</pdop></trkpt>
			<trkpt lat="51.05899347" lon="4.66725319"><ele>94.0</ele><time>2016-11-10T10:39:43Z</time><course>301.8</course><speed>4.472192</speed><geoidheight>47.0</geoidheight><src>gps</src><sat>10</sat><hdop>1.0</hdop><vdop>0.8</vdop><pdop>1.3</pdop></trkpt>
			<trkpt lat="51.05901193" lon="4.6671722"><ele>86.0</ele><time>2016-11-10T10:39:46Z</time><course>309.6</course><speed>3.383371</speed><geoidheight>47.0</geoidheight><src>gps</src><sat>6</sat><hdop>1.0</hdop><vdop>0.9</vdop><pdop>1.4</pdop></trkpt>
			<trkpt lat="51.0453064" lon="4.6623816"><time>2016-11-10T10:39:51Z</time><src>network</src></trkpt>
			<trkpt lat="51.05925695" lon="4.66708392"><ele>87.0</ele><time>2016-11-10T10:39:53Z</time><course>8.0</course><speed>4.9100914</speed><geoidheight>47.0</geoidheight><src>gps</src><sat>6</sat><hdop>1.1</hdop><vdop>0.9</vdop><pdop>1.5</pdop></trkpt>
			<trkpt lat="51.0596233" lon="4.66721663"><ele>84.0</ele><time>2016-11-10T10:40:00Z</time><course>10.7</course><speed>4.75</speed><geoidheight>47.0</geoidheight><src>gps</src><sat>10</sat><hdop>1.2</hdop><vdop>0.9</vdop><pdop>1.5</pdop></trkpt>
			<trkpt lat="51.0428818" lon="4.6821601"><time>2016-11-10T10:40:02Z</time><src>network</src></trkpt>
			<trkpt lat="51.05978163" lon="4.66728633"><ele>83.0</ele><time>2016-11-10T10:40:04Z</time><course>11.2</course><speed>4.170192</speed><geoidheight>47.0</geoidheight><src>gps</src><sat>10</sat><hdop>0.9</hdop><vdop>0.9</vdop><pdop>1.3</pdop></trkpt>
			<trkpt lat="51.0428818" lon="4.6821601"><time>2016-11-10T10:40:10Z</time><src>network</src></trkpt>
			<trkpt lat="51.06003357" lon="4.66732165"><ele>72.0</ele><time>2016-11-10T10:40:12Z</time><course>4.5</course><speed>4.023593</speed><geoidheight>47.0</geoidheight><src>gps</src><sat>8</sat><hdop>1.1</hdop><vdop>0.9</vdop><pdop>1.4</pdop></trkpt>
			<trkpt lat="51.06032373" lon="4.66740444"><ele>80.0</ele><time>2016-11-10T10:40:21Z</time><course>349.4</course><speed>2.8976197</speed><geoidheight>47.0</geoidheight><src>gps</src><sat>14</sat><hdop>1.4</hdop><vdop>1.0</vdop><pdop>1.7</pdop></trkpt>
			<trkpt lat="51.0428818" lon="4.6821601"><time>2016-11-10T10:40:26Z</time><src>network</src></trkpt>
			<trkpt lat="51.06073304" lon="4.66734346"><ele>86.0</ele><time>2016-11-10T10:40:30Z</time><course>336.5</course><speed>3.6023464</speed><geoidheight>47.0</geoidheight><src>gps</src><sat>8</sat><hdop>0.6</hdop><vdop>0.6</vdop><pdop>0.9</pdop></trkpt>
			<trkpt lat="51.060819" lon="4.66729133"><ele>86.0</ele><time>2016-11-10T10:40:32Z</time><course>344.0</course><speed>4.5818443</speed><geoidheight>47.0</geoidheight><src>gps</src><sat>10</sat><hdop>0.6</hdop><vdop>0.6</vdop><pdop>0.9</pdop></trkpt>
			<trkpt lat="51.06098004" lon="4.6672569"><ele>87.0</ele><time>2016-11-10T10:40:34Z</time><course>344.1</course><speed>5.7807007</speed><geoidheight>47.0</geoidheight><src>gps</src><sat>10</sat><hdop>1.2</hdop><vdop>0.9</vdop><pdop>1.5</pdop></trkpt>
			<trkpt lat="51.0760351" lon="4.67068"><time>2016-11-10T10:40:36Z</time><src>network</src></trkpt>
			<trkpt lat="51.06113841" lon="4.66718041"><ele>87.0</ele><time>2016-11-10T10:40:38Z</time><course>343.0</course><speed>5.2304683</speed><geoidheight>47.0</geoidheight><src>gps</src><sat>7</sat><hdop>1.2</hdop><vdop>0.9</vdop><pdop>1.5</pdop></trkpt>
			<trkpt lat="51.06126057" lon="4.66712773"><ele>91.0</ele><time>2016-11-10T10:40:40Z</time><course>347.0</course><speed>4.351942</speed><geoidheight>47.0</geoidheight><src>gps</src><sat>5</sat><hdop>1.4</hdop><vdop>0.9</vdop><pdop>1.7</pdop></trkpt>
			<trkpt lat="51.0614388" lon="4.66705865"><ele>89.0</ele><time>2016-11-10T10:40:43Z</time><course>345.5</course><speed>4.810665</speed><geoidheight>47.0</geoidheight><src>gps</src><sat>10</sat><hdop>1.6</hdop><vdop>0.9</vdop><pdop>1.9</pdop></trkpt>
			<trkpt lat="51.0760351" lon="4.67068"><time>2016-11-10T10:40:48Z</time><src>network</src></trkpt>
			<trkpt lat="51.06164778" lon="4.66683218"><ele>80.0</ele><time>2016-11-10T10:40:50Z</time><course>249.7</course><speed>3.0600164</speed><geoidheight>47.0</geoidheight><src>gps</src><sat>5</sat><hdop>1.1</hdop><vdop>0.9</vdop><pdop>1.4</pdop></trkpt>
			<trkpt lat="51.0615622" lon="4.66643916"><ele>83.0</ele><time>2016-11-10T10:40:57Z</time><course>247.1</course><speed>4.5615788</speed><geoidheight>47.0</geoidheight><src>gps</src><sat>3</sat><hdop>0.9</hdop><vdop>0.8</vdop><pdop>1.2</pdop></trkpt>
			<trkpt lat="51.06158408" lon="4.66593194"><ele>89.0</ele><time>2016-11-10T10:41:03Z</time><course>258.5</course><speed>4.623905</speed><geoidheight>47.0</geoidheight><src>gps</src><sat>3</sat><hdop>1.3</hdop><vdop>1.0</vdop><pdop>1.6</pdop></trkpt>
			<trkpt lat="51.061558" lon="4.66570042"><ele>88.0</ele><time>2016-11-10T10:41:06Z</time><course>260.6</course><speed>5.2007785</speed><geoidheight>47.0</geoidheight><src>gps</src><sat>7</sat><hdop>1.1</hdop><vdop>0.9</vdop><pdop>1.4</pdop></trkpt>
			<trkpt lat="51.06154704" lon="4.66553804"><ele>88.0</ele><time>2016-11-10T10:41:08Z</time><course>263.8</course><speed>5.0800886</speed><geoidheight>47.0</geoidheight><src>gps</src><sat>6</sat><hdop>1.5</hdop><vdop>0.9</vdop><pdop>1.8</pdop></trkpt>
			<trkpt lat="51.0612458" lon="4.639708"><time>2016-11-10T10:41:13Z</time><src>network</src></trkpt>
			<trkpt lat="51.0615124" lon="4.66504985"><ele>84.0</ele><time>2016-11-10T10:41:15Z</time><course>266.5</course><speed>4.460717</speed><geoidheight>47.0</geoidheight><src>gps</src><sat>8</sat><hdop>1.8</hdop><vdop>0.9</vdop><pdop>2.0</pdop></trkpt>
			<trkpt lat="51.06146834" lon="4.66493191"><ele>81.0</ele><time>2016-11-10T10:41:17Z</time><course>258.9</course><speed>4.0317864</speed><geoidheight>47.0</geoidheight><src>gps</src><sat>8</sat><hdop>0.9</hdop><vdop>0.8</vdop><pdop>1.2</pdop></trkpt>
			<trkpt lat="51.06147364" lon="4.66480489"><ele>80.0</ele><time>2016-11-10T10:41:19Z</time><course>264.8</course><speed>4.1212134</speed><geoidheight>47.0</geoidheight><src>gps</src><sat>6</sat><hdop>1.3</hdop><vdop>0.9</vdop><pdop>1.6</pdop></trkpt>
			<trkpt lat="51.06150797" lon="4.66455845"><ele>73.0</ele><time>2016-11-10T10:41:25Z</time><course>330.2</course><speed>3.3709493</speed><geoidheight>47.0</geoidheight><src>gps</src><sat>7</sat><hdop>1.1</hdop><vdop>0.9</vdop><pdop>1.4</pdop></trkpt>
			<trkpt lat="51.06156518" lon="4.66448858"><ele>68.0</ele><time>2016-11-10T10:41:28Z</time><course>343.9</course><speed>3.532775</speed><geoidheight>47.0</geoidheight><src>gps</src><sat>6</sat><hdop>1.0</hdop><vdop>0.9</vdop><pdop>1.4</pdop></trkpt>
			<trkpt lat="51.06167989" lon="4.66445362"><ele>70.0</ele><time>2016-11-10T10:41:30Z</time><course>344.9</course><speed>4.2309575</speed><geoidheight>47.0</geoidheight><src>gps</src><sat>10</sat><hdop>1.7</hdop><vdop>1.0</vdop><pdop>1.9</pdop></trkpt>
			<trkpt lat="51.0617477" lon="4.66442886"><ele>77.0</ele><time>2016-11-10T10:41:33Z</time><course>346.2</course><speed>3.9715238</speed><geoidheight>47.0</geoidheight><src>gps</src><sat>10</sat><hdop>1.1</hdop><vdop>0.9</vdop><pdop>1.5</pdop></trkpt>
			<trkpt lat="51.06182055" lon="4.66437961"><ele>78.0</ele><time>2016-11-10T10:41:36Z</time><course>343.1</course><speed>3.790211</speed><geoidheight>47.0</geoidheight><src>gps</src><sat>7</sat><hdop>1.4</hdop><vdop>0.9</vdop><pdop>1.7</pdop></trkpt>
			<trkpt lat="51.06187838" lon="4.66437082"><ele>79.0</ele><time>2016-11-10T10:41:38Z</time><course>349.4</course><speed>3.260138</speed><geoidheight>47.0</geoidheight><src>gps</src><sat>6</sat><hdop>1.2</hdop><vdop>0.7</vdop><pdop>1.4</pdop></trkpt>
			<trkpt lat="51.0619061" lon="4.6644953"><ele>81.0</ele><time>2016-11-10T10:41:39Z</time><course>66.3</course><speed>3.7416174</speed><geoidheight>47.0</geoidheight><src>gps</src><sat>6</sat><hdop>1.7</hdop><vdop>1.0</vdop><pdop>2.0</pdop></trkpt>
			<trkpt lat="51.06191557" lon="4.66465971"><ele>84.0</ele><time>2016-11-10T10:41:42Z</time><course>79.7</course><speed>5.1400094</speed><geoidheight>47.0</geoidheight><src>gps</src><sat>10</sat><hdop>1.1</hdop><vdop>0.9</vdop><pdop>1.4</pdop></trkpt>
			<trkpt lat="51.06197383" lon="4.66516724"><ele>86.0</ele><time>2016-11-10T10:41:48Z</time><course>79.6</course><speed>5.7300787</speed><geoidheight>47.0</geoidheight><src>gps</src><sat>12</sat><hdop>1.0</hdop><vdop>0.9</vdop><pdop>1.3</pdop></trkpt>
			<trkpt lat="51.06201021" lon="4.66535437"><ele>91.0</ele><time>2016-11-10T10:41:50Z</time><course>80.8</course><speed>5.684654</speed><geoidheight>47.0</geoidheight><src>gps</src><sat>12</sat><hdop>0.9</hdop><vdop>0.9</vdop><pdop>1.3</pdop></trkpt>
			<trkpt lat="51.0541477" lon="4.6701903"><time>2016-11-10T10:41:52Z</time><src>network</src></trkpt>
			<trkpt lat="51.06202208" lon="4.66568151"><ele>94.0</ele><time>2016-11-10T10:41:54Z</time><course>80.4</course><speed>5.4920483</speed><geoidheight>47.0</geoidheight><src>gps</src><sat>11</sat><hdop>0.9</hdop><vdop>0.9</vdop><pdop>1.3</pdop></trkpt>
			<trkpt lat="51.06203555" lon="4.66584576"><ele>92.0</ele><time>2016-11-10T10:41:57Z</time><course>81.0</course><speed>5.040486</speed><geoidheight>47.0</geoidheight><src>gps</src><sat>12</sat><hdop>0.9</hdop><vdop>0.9</vdop><pdop>1.2</pdop></trkpt>
			<trkpt lat="51.06204979" lon="4.66597848"><ele>90.0</ele><time>2016-11-10T10:41:59Z</time><course>81.5</course><speed>4.7400103</speed><geoidheight>47.0</geoidheight><src>gps</src><sat>12</sat><hdop>0.9</hdop><vdop>0.9</vdop><pdop>1.2</pdop></trkpt>
			<trkpt lat="51.0452792" lon="4.6548593"><time>2016-11-10T10:42:01Z</time><src>network</src></trkpt>
			<trkpt lat="51.06209428" lon="4.66618649"><ele>87.0</ele><time>2016-11-10T10:42:03Z</time><course>64.5</course><speed>3.9615276</speed><geoidheight>47.0</geoidheight><src>gps</src><sat>9</sat><hdop>1.1</hdop><vdop>0.9</vdop><pdop>1.4</pdop></trkpt>
			<trkpt lat="51.06212667" lon="4.66627036"><ele>84.0</ele><time>2016-11-10T10:42:05Z</time><course>45.6</course><speed>2.5603514</speed><geoidheight>47.0</geoidheight><src>gps</src><sat>8</sat><hdop>1.1</hdop><vdop>0.9</vdop><pdop>1.4</pdop></trkpt>
			<trkpt lat="51.06219745" lon="4.66629087"><ele>85.0</ele><time>2016-11-10T10:42:07Z</time><course>0.4</course><speed>3.4611704</speed><geoidheight>47.0</geoidheight><src>gps</src><sat>5</sat><hdop>1.0</hdop><vdop>0.9</vdop><pdop>1.3</pdop></trkpt>
			<trkpt lat="51.06229513" lon="4.66628847"><ele>84.0</ele><time>2016-11-10T10:42:10Z</time><course>356.9</course><speed>4.9325957</speed><geoidheight>47.0</geoidheight><src>gps</src><sat>5</sat><hdop>2.0</hdop><vdop>1.0</vdop><pdop>2.2</pdop></trkpt>
			<trkpt lat="51.0452792" lon="4.6548593"><time>2016-11-10T10:42:12Z</time><src>network</src></trkpt>
			<trkpt lat="51.0625274" lon="4.66626344"><ele>86.0</ele><time>2016-11-10T10:42:14Z</time><course>354.7</course><speed>5.9801335</speed><geoidheight>47.0</geoidheight><src>gps</src><sat>8</sat><hdop>1.2</hdop><vdop>0.9</vdop><pdop>1.5</pdop></trkpt>
			<trkpt lat="51.06264224" lon="4.66627171"><ele>84.0</ele><time>2016-11-10T10:42:16Z</time><course>358.1</course><speed>6.180008</speed><geoidheight>47.0</geoidheight><src>gps</src><sat>7</sat><hdop>1.2</hdop><vdop>0.9</vdop><pdop>1.5</pdop></trkpt>
			<trkpt lat="51.0627633" lon="4.6662548"><ele>83.0</ele><time>2016-11-10T10:42:19Z</time><course>358.4</course><speed>6.0601315</speed><geoidheight>47.0</geoidheight><src>gps</src><sat>7</sat><hdop>1.4</hdop><vdop>0.9</vdop><pdop>1.7</pdop></trkpt>
			<trkpt lat="51.06284319" lon="4.66622418"><ele>81.0</ele><time>2016-11-10T10:42:21Z</time><course>357.7</course><speed>4.6010866</speed><geoidheight>47.0</geoidheight><src>gps</src><sat>7</sat><hdop>1.4</hdop><vdop>0.9</vdop><pdop>1.7</pdop></trkpt>
			<trkpt lat="51.06292888" lon="4.66623964"><ele>83.0</ele><time>2016-11-10T10:42:23Z</time><course>357.7</course><speed>4.0900126</speed><geoidheight>47.0</geoidheight><src>gps</src><sat>3</sat><hdop>1.2</hdop><vdop>0.9</vdop><pdop>1.5</pdop></trkpt>
			<trkpt lat="51.0629935" lon="4.66617984"><ele>85.0</ele><time>2016-11-10T10:42:26Z</time><course>293.4</course><speed>1.7729073</speed><geoidheight>47.0</geoidheight><src>gps</src><sat>3</sat><hdop>2.7</hdop><vdop>1.0</vdop><pdop>2.9</pdop></trkpt>
			<trkpt lat="51.06302484" lon="4.6660955"><ele>81.0</ele><time>2016-11-10T10:42:28Z</time><course>252.8</course><speed>3.6926548</speed><geoidheight>47.0</geoidheight><src>gps</src><sat>5</sat><hdop>1.0</hdop><vdop>0.9</vdop><pdop>1.4</pdop></trkpt>
			<trkpt lat="51.0629784" lon="4.66565451"><ele>85.0</ele><time>2016-11-10T10:42:34Z</time><course>256.0</course><speed>5.9233775</speed><geoidheight>47.0</geoidheight><src>gps</src><sat>6</sat><hdop>1.4</hdop><vdop>1.0</vdop><pdop>1.7</pdop></trkpt>
			<trkpt lat="51.06291786" lon="4.66549218"><ele>86.0</ele><time>2016-11-10T10:42:37Z</time><course>250.6</course><speed>5.793453</speed><geoidheight>47.0</geoidheight><src>gps</src><sat>6</sat><hdop>2.7</hdop><vdop>1.0</vdop><pdop>2.9</pdop></trkpt>
			<trkpt lat="51.06287084" lon="4.66530733"><ele>83.0</ele><time>2016-11-10T10:42:39Z</time><course>251.0</course><speed>5.86435</speed><geoidheight>47.0</geoidheight><src>gps</src><sat>4</sat><hdop>1.2</hdop><vdop>0.9</vdop><pdop>1.5</pdop></trkpt>
			<trkpt lat="51.06282934" lon="4.6651415"><ele>82.0</ele><time>2016-11-10T10:42:41Z</time><course>246.3</course><speed>5.8116865</speed><geoidheight>47.0</geoidheight><src>gps</src><sat>8</sat><hdop>2.7</hdop><vdop>1.0</vdop><pdop>2.9</pdop></trkpt>
			<trkpt lat="51.06281488" lon="4.66495883"><ele>81.0</ele><time>2016-11-10T10:42:44Z</time><course>254.7</course><speed>5.1811676</speed><geoidheight>47.0</geoidheight><src>gps</src><sat>8</sat><hdop>1.1</hdop><vdop>0.9</vdop><pdop>1.5</pdop></trkpt>
			<trkpt lat="51.06279302" lon="4.66440062"><ele>80.0</ele><time>2016-11-10T10:42:50Z</time><course>247.7</course><speed>5.2507715</speed><geoidheight>47.0</geoidheight><src>gps</src><sat>6</sat><hdop>2.0</hdop><vdop>1.0</vdop><pdop>2.2</pdop></trkpt>
			<trkpt lat="51.06275756" lon="4.66424616"><ele>76.0</ele><time>2016-11-10T10:42:52Z</time><course>253.1</course><speed>5.3373494</speed><geoidheight>47.0</geoidheight><src>gps</src><sat>9</sat><hdop>1.4</hdop><vdop>1.0</vdop><pdop>1.7</pdop></trkpt>
			<trkpt lat="51.06269296" lon="4.66407039"><ele>80.0</ele><time>2016-11-10T10:42:55Z</time><course>247.7</course><speed>5.3800836</speed><geoidheight>47.0</geoidheight><src>gps</src><sat>6</sat><hdop>1.8</hdop><vdop>0.9</vdop><pdop>2.0</pdop></trkpt>
			<trkpt lat="51.06266041" lon="4.66390455"><ele>81.0</ele><time>2016-11-10T10:42:57Z</time><course>254.3</course><speed>5.1000094</speed><geoidheight>47.0</geoidheight><src>gps</src><sat>6</sat><hdop>1.0</hdop><vdop>0.8</vdop><pdop>1.3</pdop></trkpt>
			<trkpt lat="51.06263273" lon="4.66361387"><ele>84.0</ele><time>2016-11-10T10:43:01Z</time><course>255.1</course><speed>4.6879635</speed><geoidheight>47.0</geoidheight><src>gps</src><sat>13</sat><hdop>3.9</hdop><vdop>1.0</vdop><pdop>4.0</pdop></trkpt>
			<trkpt lat="51.06260428" lon="4.66346178"><ele>86.0</ele><time>2016-11-10T10:43:02Z</time><course>254.8</course><speed>5.600437</speed><geoidheight>47.0</geoidheight><src>gps</src><sat>13</sat><hdop>0.6</hdop><vdop>0.6</vdop><pdop>0.9</pdop></trkpt>
			<trkpt lat="51.0776594" lon="4.6709515"><time>2016-11-10T10:43:04Z</time><src>network</src></trkpt>
			<trkpt lat="51.06250772" lon="4.66314824"><ele>85.0</ele><time>2016-11-10T10:43:06Z</time><course>244.6</course><speed>5.3425183</speed><geoidheight>47.0</geoidheight><src>gps</src><sat>5</sat><hdop>1.2</hdop><vdop>0.9</vdop><pdop>1.5</pdop></trkpt>
			<trkpt lat="51.06243935" lon="4.66299189"><ele>79.0</ele><time>2016-11-10T10:43:09Z</time><course>249.4</course><speed>5.6542816</speed><geoidheight>47.0</geoidheight><src>gps</src><sat>7</sat><hdop>1.0</hdop><vdop>0.9</vdop><pdop>1.3</pdop></trkpt>
			<trkpt lat="51.06238404" lon="4.66281101"><ele>77.0</ele><time>2016-11-10T10:43:12Z</time><course>250.5</course><speed>5.9203043</speed><geoidheight>47.0</geoidheight><src>gps</src><sat>8</sat><hdop>1.1</hdop><vdop>0.8</vdop><pdop>1.4</pdop></trkpt>
			<trkpt lat="51.0760351" lon="4.67068"><time>2016-11-10T10:43:13Z</time><src>network</src></trkpt>
			<trkpt lat="51.06238007" lon="4.66243149"><ele>79.0</ele><time>2016-11-10T10:43:16Z</time><course>254.4</course><speed>4.7850604</speed><geoidheight>47.0</geoidheight><src>gps</src><sat>11</sat><hdop>0.9</hdop><vdop>0.8</vdop><pdop>1.2</pdop></trkpt>
			<trkpt lat="51.06234565" lon="4.66231646"><ele>82.0</ele><time>2016-11-10T10:43:17Z</time><course>236.6</course><speed>4.636087</speed><geoidheight>47.0</geoidheight><src>gps</src><sat>7</sat><hdop>1.0</hdop><vdop>0.8</vdop><pdop>1.3</pdop></trkpt>
			<trkpt lat="51.0760351" lon="4.67068"><time>2016-11-10T10:43:23Z</time><src>network</src></trkpt>
			<trkpt lat="51.06216872" lon="4.66204172"><ele>83.0</ele><time>2016-11-10T10:43:25Z</time><course>148.4</course><speed>3.2900152</speed><geoidheight>47.0</geoidheight><src>gps</src><sat>7</sat><hdop>1.2</hdop><vdop>0.9</vdop><pdop>1.5</pdop></trkpt>
			<trkpt lat="51.06210315" lon="4.66205559"><ele>80.0</ele><time>2016-11-10T10:43:27Z</time><course>143.4</course><speed>3.4624414</speed><geoidheight>47.0</geoidheight><src>gps</src><sat>1</sat><hdop>1.0</hdop><vdop>0.8</vdop><pdop>1.3</pdop></trkpt>
			<trkpt lat="51.0760351" lon="4.67068"><time>2016-11-10T10:43:33Z</time><src>network</src></trkpt>
			<trkpt lat="51.06181633" lon="4.66237232"><ele>76.0</ele><time>2016-11-10T10:43:35Z</time><course>141.9</course><speed>5.070089</speed><geoidheight>47.0</geoidheight><src>gps</src><sat>1</sat><hdop>2.3</hdop><vdop>0.8</vdop><pdop>2.4</pdop></trkpt>
			<trkpt lat="51.06175123" lon="4.66252773"><ele>69.0</ele><time>2016-11-10T10:43:38Z</time><course>144.1</course><speed>4.8603706</speed><geoidheight>47.0</geoidheight><src>gps</src><sat>6</sat><hdop>2.1</hdop><vdop>0.8</vdop><pdop>2.3</pdop></trkpt>
			<trkpt lat="51.06166496" lon="4.6626045"><ele>69.0</ele><time>2016-11-10T10:43:40Z</time><course>142.9</course><speed>4.6806836</speed><geoidheight>47.0</geoidheight><src>gps</src><sat>5</sat><hdop>1.7</hdop><vdop>0.8</vdop><pdop>1.9</pdop></trkpt>
			<trkpt lat="51.06158159" lon="4.66268289"><ele>70.0</ele><time>2016-11-10T10:43:42Z</time><course>143.3</course><speed>4.62053</speed><geoidheight>47.0</geoidheight><src>gps</src><sat>5</sat><hdop>1.3</hdop><vdop>0.8</vdop><pdop>1.5</pdop></trkpt>
			<trkpt lat="51.06135056" lon="4.66297231"><ele>70.0</ele><time>2016-11-10T10:43:49Z</time><course>143.5</course><speed>5.031203</speed><geoidheight>47.0</geoidheight><src>gps</src><sat>7</sat><hdop>1.1</hdop><vdop>0.9</vdop><pdop>1.5</pdop></trkpt>
			<trkpt lat="51.0760351" lon="4.67068"><time>2016-11-10T10:43:55Z</time><src>network</src></trkpt>
			<trkpt lat="51.06106952" lon="4.66326316"><ele>74.0</ele><time>2016-11-10T10:43:57Z</time><course>144.4</course><speed>4.9840145</speed><geoidheight>47.0</geoidheight><src>gps</src><sat>5</sat><hdop>1.8</hdop><vdop>1.0</vdop><pdop>2.0</pdop></trkpt>
			<trkpt lat="51.06102844" lon="4.66338841"><ele>79.0</ele><time>2016-11-10T10:43:59Z</time><course>141.9</course><speed>4.9412246</speed><geoidheight>47.0</geoidheight><src>gps</src><sat>5</sat><hdop>1.6</hdop><vdop>0.9</vdop><pdop>1.8</pdop></trkpt>
			<trkpt lat="51.06096549" lon="4.6634895"><ele>80.0</ele><time>2016-11-10T10:44:00Z</time><course>140.9</course><speed>5.120244</speed><geoidheight>47.0</geoidheight><src>gps</src><sat>7</sat><hdop>1.0</hdop><vdop>0.8</vdop><pdop>1.3</pdop></trkpt>
			<trkpt lat="51.0760351" lon="4.67068"><time>2016-11-10T10:44:06Z</time><src>network</src></trkpt>
			<trkpt lat="51.06069489" lon="4.66382355"><ele>86.0</ele><time>2016-11-10T10:44:08Z</time><course>142.3</course><speed>4.98004</speed><geoidheight>47.0</geoidheight><src>gps</src><sat>7</sat><hdop>1.8</hdop><vdop>1.0</vdop><pdop>2.0</pdop></trkpt>
			<trkpt lat="51.06060332" lon="4.66394844"><ele>88.0</ele><time>2016-11-10T10:44:11Z</time><course>141.7</course><speed>4.86</speed><geoidheight>47.0</geoidheight><src>gps</src><sat>7</sat><hdop>1.7</hdop><vdop>0.8</vdop><pdop>1.9</pdop></trkpt>
			<trkpt lat="51.0605196" lon="4.66403014"><ele>80.0</ele><time>2016-11-10T10:44:12Z</time><course>143.1</course><speed>5.3268476</speed><geoidheight>47.0</geoidheight><src>gps</src><sat>10</sat><hdop>1.7</hdop><vdop>0.8</vdop><pdop>1.9</pdop></trkpt>
			<trkpt lat="51.06044457" lon="4.66411908"><ele>80.0</ele><time>2016-11-10T10:44:15Z</time><course>144.6</course><speed>4.9553404</speed><geoidheight>47.0</geoidheight><src>gps</src><sat>9</sat><hdop>1.0</hdop><vdop>0.8</vdop><pdop>1.3</pdop></trkpt>
			<trkpt lat="51.0428818" lon="4.6821601"><time>2016-11-10T10:44:20Z</time><src>network</src></trkpt>
			<trkpt lat="51.06019168" lon="4.66454881"><ele>82.0</ele><time>2016-11-10T10:44:22Z</time><course>130.4</course><speed>4.940162</speed><geoidheight>47.0</geoidheight><src>gps</src><sat>7</sat><hdop>1.1</hdop><vdop>0.9</vdop><pdop>1.5</pdop></trkpt>
			<trkpt lat="51.0601343" lon="4.66469783"><ele>80.0</ele><time>2016-11-10T10:44:25Z</time><course>129.7</course><speed>5.00081</speed><geoidheight>47.0</geoidheight><src>gps</src><sat>6</sat><hdop>1.5</hdop><vdop>1.0</vdop><pdop>1.7</pdop></trkpt>
			<trkpt lat="51.0600476" lon="4.66479531"><ele>83.0</ele><time>2016-11-10T10:44:27Z</time><course>127.6</course><speed>5.2500095</speed><geoidheight>47.0</geoidheight><src>gps</src><sat>6</sat><hdop>2.2</hdop><vdop>1.0</vdop><pdop>2.4</pdop></trkpt>
			<trkpt lat="51.0454064" lon="4.6762497"><time>2016-11-10T10:44:28Z</time><src>network</src></trkpt>
			<trkpt lat="51.05988193" lon="4.6649903"><ele>80.0</ele><time>2016-11-10T10:44:31Z</time><course>128.0</course><speed>5.2800856</speed><geoidheight>47.0</geoidheight><src>gps</src><sat>7</sat><hdop>0.9</hdop><vdop>0.8</vdop><pdop>1.2</pdop></trkpt>
			<trkpt lat="51.05984217" lon="4.66515839"><ele>76.0</ele><time>2016-11-10T10:44:33Z</time><course>121.0</course><speed>5.0811906</speed><geoidheight>47.0</geoidheight><src>gps</src><sat>8</sat><hdop>1.2</hdop><vdop>0.9</vdop><pdop>1.5</pdop></trkpt>
			<trkpt lat="51.05976742" lon="4.66528963"><ele>81.0</ele><time>2016-11-10T10:44:36Z</time><course>122.4</course><speed>4.881168</speed><geoidheight>47.0</geoidheight><src>gps</src><sat>8</sat><hdop>1.0</hdop><vdop>0.8</vdop><pdop>1.3</pdop></trkpt>
			<trkpt lat="51.0428818" lon="4.6821601"><time>2016-11-10T10:44:41Z</time><src>network</src></trkpt>
			<trkpt lat="51.05959895" lon="4.66579844"><ele>87.0</ele><time>2016-11-10T10:44:43Z</time><course>123.8</course><speed>4.8050394</speed><geoidheight>47.0</geoidheight><src>gps</src><sat>8</sat><hdop>1.0</hdop><vdop>0.9</vdop><pdop>1.3</pdop></trkpt>
			<trkpt lat="51.05953115" lon="4.66593525"><ele>84.0</ele><time>2016-11-10T10:44:46Z</time><course>125.7</course><speed>4.931227</speed><geoidheight>47.0</geoidheight><src>gps</src><sat>8</sat><hdop>0.9</hdop><vdop>0.7</vdop><pdop>1.1</pdop></trkpt>
			<trkpt lat="51.05946765" lon="4.66606592"><ele>84.0</ele><time>2016-11-10T10:44:48Z</time><course>123.8</course><speed>5.18</speed><geoidheight>47.0</geoidheight><src>gps</src><sat>5</sat><hdop>1.4</hdop><vdop>0.8</vdop><pdop>1.6</pdop></trkpt>
			<trkpt lat="51.05939626" lon="4.66620824"><ele>84.0</ele><time>2016-11-10T10:44:50Z</time><course>124.8</course><speed>5.2701516</speed><geoidheight>47.0</geoidheight><src>gps</src><sat>7</sat><hdop>1.4</hdop><vdop>0.8</vdop><pdop>1.6</pdop></trkpt>
			<trkpt lat="51.0428818" lon="4.6821601"><time>2016-11-10T10:44:52Z</time><src>network</src></trkpt>
			<trkpt lat="51.0593025" lon="4.66643147"><ele>81.0</ele><time>2016-11-10T10:44:54Z</time><course>122.0</course><speed>5.5515223</speed><geoidheight>47.0</geoidheight><src>gps</src><sat>7</sat><hdop>1.2</hdop><vdop>0.9</vdop><pdop>1.5</pdop></trkpt>
			<trkpt lat="51.05925002" lon="4.66660621"><ele>75.0</ele><time>2016-11-10T10:44:56Z</time><course>118.7</course><speed>5.050594</speed><geoidheight>47.0</geoidheight><src>gps</src><sat>9</sat><hdop>1.1</hdop><vdop>0.8</vdop><pdop>1.4</pdop></trkpt>
			<trkpt lat="51.05919694" lon="4.66675091"><ele>75.0</ele><time>2016-11-10T10:44:58Z</time><course>116.9</course><speed>5.051426</speed><geoidheight>47.0</geoidheight><src>gps</src><sat>5</sat><hdop>1.1</hdop><vdop>0.8</vdop><pdop>1.4</pdop></trkpt>
			<trkpt lat="51.05914022" lon="4.66690708"><ele>75.0</ele><time>2016-11-10T10:45:01Z</time><course>119.5</course><speed>4.9448967</speed><geoidheight>47.0</geoidheight><src>gps</src><sat>5</sat><hdop>1.4</hdop><vdop>0.8</vdop><pdop>1.6</pdop></trkpt>
			<trkpt lat="51.0428818" lon="4.6821601"><time>2016-11-10T10:45:02Z</time><src>network</src></trkpt>
			<trkpt lat="51.05906617" lon="4.66712018"><ele>75.0</ele><time>2016-11-10T10:45:04Z</time><course>117.6</course><speed>4.840093</speed><geoidheight>47.0</geoidheight><src>gps</src><sat>5</sat><hdop>1.4</hdop><vdop>0.8</vdop><pdop>1.6</pdop></trkpt>
			<trkpt lat="51.05899447" lon="4.66726173"><ele>75.0</ele><time>2016-11-10T10:45:07Z</time><course>122.3</course><speed>4.841746</speed><geoidheight>47.0</geoidheight><src>gps</src><sat>5</sat><hdop>1.2</hdop><vdop>0.9</vdop><pdop>1.4</pdop></trkpt>
			<trkpt lat="51.05891506" lon="4.66749916"><ele>75.0</ele><time>2016-11-10T10:45:11Z</time><course>119.3</course><speed>4.6203895</speed><geoidheight>47.0</geoidheight><src>gps</src><sat>5</sat><hdop>1.3</hdop><vdop>0.9</vdop><pdop>1.6</pdop></trkpt>
			<trkpt lat="51.0428818" lon="4.6821601"><time>2016-11-10T10:45:13Z</time><src>network</src></trkpt>
			<trkpt lat="51.05885522" lon="4.66776396"><ele>74.0</ele><time>2016-11-10T10:45:15Z</time><course>119.0</course><speed>4.8401656</speed><geoidheight>47.0</geoidheight><src>gps</src><sat>7</sat><hdop>1.3</hdop><vdop>0.8</vdop><pdop>1.6</pdop></trkpt>
			<trkpt lat="51.05881539" lon="4.66789494"><ele>74.0</ele><time>2016-11-10T10:45:17Z</time><course>120.2</course><speed>4.370732</speed><geoidheight>47.0</geoidheight><src>gps</src><sat>7</sat><hdop>1.1</hdop><vdop>0.8</vdop><pdop>1.4</pdop></trkpt>
			<trkpt lat="51.05872099" lon="4.6680908"><ele>79.0</ele><time>2016-11-10T10:45:22Z</time><course>122.2</course><speed>4.270012</speed><geoidheight>47.0</geoidheight><src>gps</src><sat>13</sat><hdop>0.9</hdop><vdop>0.8</vdop><pdop>1.2</pdop></trkpt>
			<trkpt lat="51.0428818" lon="4.6821601"><time>2016-11-10T10:45:23Z</time><src>network</src></trkpt>
			<trkpt lat="51.05866847" lon="4.66814022"><ele>81.0</ele><time>2016-11-10T10:45:25Z</time><course>142.8</course><speed>2.226432</speed><geoidheight>47.0</geoidheight><src>gps</src><sat>13</sat><hdop>0.7</hdop><vdop>0.7</vdop><pdop>0.9</pdop></trkpt>
			<trkpt lat="51.0428818" lon="4.6821601"><time>2016-11-10T10:45:31Z</time><src>network</src></trkpt>
			<trkpt lat="51.05839128" lon="4.66805135"><ele>84.0</ele><time>2016-11-10T10:45:34Z</time><course>222.5</course><speed>4.051876</speed><geoidheight>47.0</geoidheight><src>gps</src><sat>5</sat><hdop>1.0</hdop><vdop>0.9</vdop><pdop>1.3</pdop></trkpt>
			<trkpt lat="51.05828887" lon="4.66797243"><ele>87.0</ele><time>2016-11-10T10:45:36Z</time><course>209.8</course><speed>4.3502874</speed><geoidheight>47.0</geoidheight><src>gps</src><sat>8</sat><hdop>1.3</hdop><vdop>0.9</vdop><pdop>1.5</pdop></trkpt>
			<trkpt lat="51.0428818" lon="4.6821601"><time>2016-11-10T10:45:42Z</time><src>network</src></trkpt>
			<trkpt lat="51.05800332" lon="4.66773776"><ele>87.0</ele><time>2016-11-10T10:45:44Z</time><course>203.5</course><speed>3.77065</speed><geoidheight>47.0</geoidheight><src>gps</src><sat>9</sat><hdop>1.1</hdop><vdop>0.9</vdop><pdop>1.4</pdop></trkpt>
			<trkpt lat="51.0579277" lon="4.66772591"><ele>90.0</ele><time>2016-11-10T10:45:46Z</time><course>214.2</course><speed>2.3455915</speed><geoidheight>47.0</geoidheight><src>gps</src><sat>9</sat><hdop>1.1</hdop><vdop>0.9</vdop><pdop>1.4</pdop></trkpt>
			<trkpt lat="51.05792033" lon="4.66766783"><ele>89.0</ele><time>2016-11-10T10:45:48Z</time><course>237.9</course><speed>0.9725225</speed><geoidheight>47.0</geoidheight><src>gps</src><sat>8</sat><hdop>3.8</hdop><vdop>1.0</vdop><pdop>3.9</pdop></trkpt>
			<trkpt lat="51.0428818" lon="4.6821601"><time>2016-11-10T10:45:50Z</time><src>network</src></trkpt>
			<trkpt lat="51.05788244" lon="4.66762133"><ele>90.0</ele><time>2016-11-10T10:45:53Z</time><course>190.6</course><speed>2.7214887</speed><geoidheight>47.0</geoidheight><src>gps</src><sat>4</sat><hdop>1.5</hdop><vdop>1.0</vdop><pdop>1.7</pdop></trkpt>
			<trkpt lat="51.05781836" lon="4.66756909"><ele>87.0</ele><time>2016-11-10T10:45:55Z</time><course>193.5</course><speed>4.410918</speed><geoidheight>47.0</geoidheight><src>gps</src><sat>6</sat><hdop>1.4</hdop><vdop>0.9</vdop><pdop>1.7</pdop></trkpt>
			<trkpt lat="51.05774796" lon="4.66754878"><ele>82.0</ele><time>2016-11-10T10:45:57Z</time><course>211.8</course><speed>5.320874</speed><geoidheight>47.0</geoidheight><src>gps</src><sat>4</sat><hdop>1.5</hdop><vdop>0.8</vdop><pdop>1.7</pdop></trkpt>
			<trkpt lat="51.05764349" lon="4.66744402"><ele>82.0</ele><time>2016-11-10T10:46:00Z</time><course>220.2</course><speed>5.7507043</speed><geoidheight>47.0</geoidheight><src>gps</src><sat>4</sat><hdop>1.4</hdop><vdop>0.9</vdop><pdop>1.6</pdop></trkpt>
			<trkpt lat="51.0428818" lon="4.6821601"><time>2016-11-10T10:46:01Z</time><src>network</src></trkpt>
			<trkpt lat="51.05751531" lon="4.66722042"><ele>83.0</ele><time>2016-11-10T10:46:04Z</time><course>224.6</course><speed>5.400009</speed><geoidheight>47.0</geoidheight><src>gps</src><sat>6</sat><hdop>1.3</hdop><vdop>0.9</vdop><pdop>1.5</pdop></trkpt>
			<trkpt lat="51.05743003" lon="4.66705195"><ele>82.0</ele><time>2016-11-10T10:46:05Z</time><course>226.1</course><speed>5.800138</speed><geoidheight>47.0</geoidheight><src>gps</src><sat>5</sat><hdop>0.9</hdop><vdop>0.8</vdop><pdop>1.2</pdop></trkpt>
			<trkpt lat="51.05736147" lon="4.66692874"><ele>81.0</ele><time>2016-11-10T10:46:08Z</time><course>222.8</course><speed>4.8214936</speed><geoidheight>47.0</geoidheight><src>gps</src><sat>5</sat><hdop>2.1</hdop><vdop>1.0</vdop><pdop>2.3</pdop></trkpt>
			<trkpt lat="51.05727137" lon="4.66680486"><ele>80.0</ele><time>2016-11-10T10:46:10Z</time><course>222.2</course><speed>5.0901575</speed><geoidheight>47.0</geoidheight><src>gps</src><sat>5</sat><hdop>1.6</hdop><vdop>1.0</vdop><pdop>1.8</pdop></trkpt>
			<trkpt lat="51.05717554" lon="4.66673419"><ele>81.0</ele><time>2016-11-10T10:46:12Z</time><course>220.3</course><speed>5.21047</speed><geoidheight>47.0</geoidheight><src>gps</src><sat>6</sat><hdop>1.7</hdop><vdop>0.9</vdop><pdop>1.9</pdop></trkpt>
			<trkpt lat="51.05708403" lon="4.66661538"><ele>83.0</ele><time>2016-11-10T10:46:15Z</time><course>218.8</course><speed>5.521304</speed><geoidheight>47.0</geoidheight><src>gps</src><sat>6</sat><hdop>1.3</hdop><vdop>0.9</vdop><pdop>1.6</pdop></trkpt>
			<trkpt lat="51.0428818" lon="4.6821601"><time>2016-11-10T10:46:20Z</time><src>network</src></trkpt>
			<trkpt lat="51.05679698" lon="4.66625403"><ele>81.0</ele><time>2016-11-10T10:46:22Z</time><course>210.3</course><speed>5.540902</speed><geoidheight>47.0</geoidheight><src>gps</src><sat>7</sat><hdop>1.0</hdop><vdop>0.8</vdop><pdop>1.3</pdop></trkpt>
			<trkpt lat="51.05651267" lon="4.66609681"><ele>81.0</ele><time>2016-11-10T10:46:28Z</time><course>186.3</course><speed>5.42</speed><geoidheight>47.0</geoidheight><src>gps</src><sat>6</sat><hdop>1.2</hdop><vdop>0.9</vdop><pdop>1.4</pdop></trkpt>
			<trkpt lat="51.0462962" lon="4.662151"><time>2016-11-10T10:46:30Z</time><src>network</src></trkpt>
			<trkpt lat="51.0563578" lon="4.66604903"><ele>76.0</ele><time>2016-11-10T10:46:32Z</time><course>167.5</course><speed>5.570225</speed><geoidheight>47.0</geoidheight><src>gps</src><sat>4</sat><hdop>0.9</hdop><vdop>0.8</vdop><pdop>1.2</pdop></trkpt>
			<trkpt lat="51.0562538" lon="4.66614079"><ele>74.0</ele><time>2016-11-10T10:46:34Z</time><course>156.2</course><speed>5.8927493</speed><geoidheight>47.0</geoidheight><src>gps</src><sat>8</sat><hdop>1.6</hdop><vdop>1.0</vdop><pdop>1.9</pdop></trkpt>
			<trkpt lat="51.05613136" lon="4.66621012"><ele>74.0</ele><time>2016-11-10T10:46:37Z</time><course>159.5</course><speed>5.910211</speed><geoidheight>47.0</geoidheight><src>gps</src><sat>8</sat><hdop>1.0</hdop><vdop>0.7</vdop><pdop>1.2</pdop></trkpt>
			<trkpt lat="51.0462962" lon="4.662151"><time>2016-11-10T10:46:41Z</time><src>network</src></trkpt>
			<trkpt lat="51.05592444" lon="4.66653864"><ele>73.0</ele><time>2016-11-10T10:46:43Z</time><course>119.1</course><speed>5.3306003</speed><geoidheight>47.0</geoidheight><src>gps</src><sat>8</sat><hdop>2.8</hdop><vdop>0.9</vdop><pdop>3.0</pdop></trkpt>
			<trkpt lat="51.05587072" lon="4.66672738"><ele>71.0</ele><time>2016-11-10T10:46:45Z</time><course>112.3</course><speed>5.8400345</speed><geoidheight>47.0</geoidheight><src>gps</src><sat>6</sat><hdop>1.2</hdop><vdop>0.9</vdop><pdop>1.5</pdop></trkpt>
			<trkpt lat="51.0508267" lon="4.6633025"><time>2016-11-10T10:46:53Z</time><src>network</src></trkpt>
			<trkpt lat="51.0557245" lon="4.66747703"><ele>70.0</ele><time>2016-11-10T10:46:55Z</time><course>114.9</course><speed>5.460009</speed><geoidheight>47.0</geoidheight><src>gps</src><sat>9</sat><hdop>1.2</hdop><vdop>0.9</vdop><pdop>1.6</pdop></trkpt>
			<trkpt lat="51.05565484" lon="4.66762897"><ele>74.0</ele><time>2016-11-10T10:46:57Z</time><course>123.8</course><speed>5.3203387</speed><geoidheight>47.0</geoidheight><src>gps</src><sat>10</sat><hdop>0.9</hdop><vdop>0.7</vdop><pdop>1.1</pdop></trkpt>
			<trkpt lat="51.05559402" lon="4.66777972"><ele>73.0</ele><time>2016-11-10T10:46:59Z</time><course>117.3</course><speed>5.3003397</speed><geoidheight>47.0</geoidheight><src>gps</src><sat>7</sat><hdop>1.1</hdop><vdop>0.9</vdop><pdop>1.4</pdop></trkpt>
			<trkpt lat="51.0508267" lon="4.6633025"><time>2016-11-10T10:47:05Z</time><src>network</src></trkpt>
			<trkpt lat="51.05541284" lon="4.6682888"><ele>71.0</ele><time>2016-11-10T10:47:07Z</time><course>106.1</course><speed>4.5905337</speed><geoidheight>47.0</geoidheight><src>gps</src><sat>8</sat><hdop>1.5</hdop><vdop>0.9</vdop><pdop>1.8</pdop></trkpt>
			<trkpt lat="51.05540732" lon="4.66842046"><ele>72.0</ele><time>2016-11-10T10:47:10Z</time><course>66.2</course><speed>4.4500446</speed><geoidheight>47.0</geoidheight><src>gps</src><sat>8</sat><hdop>1.1</hdop><vdop>0.9</vdop><pdop>1.4</pdop></trkpt>
			<trkpt lat="51.0508267" lon="4.6633025"><time>2016-11-10T10:47:15Z</time><src>network</src></trkpt>
			<trkpt lat="51.0556479" lon="4.66874919"><ele>75.0</ele><time>2016-11-10T10:47:17Z</time><course>33.3</course><speed>4.9506464</speed><geoidheight>47.0</geoidheight><src>gps</src><sat>4</sat><hdop>1.0</hdop><vdop>0.9</vdop><pdop>1.3</pdop></trkpt>
			<trkpt lat="51.05573421" lon="4.6688877"><ele>81.0</ele><time>2016-11-10T10:47:20Z</time><course>27.6</course><speed>4.583939</speed><geoidheight>47.0</geoidheight><src>gps</src><sat>8</sat><hdop>1.3</hdop><vdop>0.9</vdop><pdop>1.6</pdop></trkpt>
			<trkpt lat="51.05585291" lon="4.66896935"><ele>83.0</ele><time>2016-11-10T10:47:23Z</time><course>30.9</course><speed>4.374574</speed><geoidheight>47.0</geoidheight><src>gps</src><sat>8</sat><hdop>1.1</hdop><vdop>0.8</vdop><pdop>1.4</pdop></trkpt>
			<trkpt lat="51.0508267" lon="4.6633025"><time>2016-11-10T10:47:25Z</time><src>network</src></trkpt>
			<trkpt lat="51.05598117" lon="4.66906334"><ele>82.0</ele><time>2016-11-10T10:47:27Z</time><course>30.0</course><speed>4.570175</speed><geoidheight>47.0</geoidheight><src>gps</src><sat>7</sat><hdop>1.1</hdop><vdop>0.9</vdop><pdop>1.4</pdop></trkpt>
			<trkpt lat="51.0560652" lon="4.66917124"><ele>83.0</ele><time>2016-11-10T10:47:29Z</time><course>32.3</course><speed>5.1600385</speed><geoidheight>47.0</geoidheight><src>gps</src><sat>7</sat><hdop>1.5</hdop><vdop>0.9</vdop><pdop>1.7</pdop></trkpt>
			<trkpt lat="51.0561862" lon="4.66929915"><ele>83.0</ele><time>2016-11-10T10:47:32Z</time><course>31.9</course><speed>5.27</speed><geoidheight>47.0</geoidheight><src>gps</src><sat>8</sat><hdop>0.9</hdop><vdop>0.8</vdop><pdop>1.3</pdop></trkpt>
			<trkpt lat="51.0508267" lon="4.6633025"><time>2016-11-10T10:47:34Z</time><src>network</src></trkpt>
			<trkpt lat="51.05634143" lon="4.66942496"><ele>83.0</ele><time>2016-11-10T10:47:35Z</time><course>27.2</course><speed>5.040248</speed><geoidheight>47.0</geoidheight><src>gps</src><sat>7</sat><hdop>1.2</hdop><vdop>0.9</vdop><pdop>1.5</pdop></trkpt>
			<trkpt lat="51.0564588" lon="4.66955341"><ele>80.0</ele><time>2016-11-10T10:47:38Z</time><course>23.7</course><speed>4.770377</speed><geoidheight>47.0</geoidheight><src>gps</src><sat>7</sat><hdop>1.3</hdop><vdop>0.9</vdop><pdop>1.6</pdop></trkpt>
			<trkpt lat="51.0541477" lon="4.6701903"><time>2016-11-10T10:47:44Z</time><src>network</src></trkpt>
			<trkpt lat="51.05693578" lon="4.66969667"><ele>80.0</ele><time>2016-11-10T10:47:51Z</time><course>11.2</course><speed>4.6800427</speed><geoidheight>47.0</geoidheight><src>gps</src><sat>9</sat><hdop>0.9</hdop><vdop>0.8</vdop><pdop>1.2</pdop></trkpt>
			<trkpt lat="51.0570295" lon="4.66971836"><ele>79.0</ele><time>2016-11-10T10:47:53Z</time><course>22.2</course><speed>4.8940067</speed><geoidheight>47.0</geoidheight><src>gps</src><sat>9</sat><hdop>1.5</hdop><vdop>0.9</vdop><pdop>1.7</pdop></trkpt>
			<trkpt lat="51.05716613" lon="4.66978839"><ele>79.0</ele><time>2016-11-10T10:47:55Z</time><course>23.5</course><speed>4.976203</speed><geoidheight>47.0</geoidheight><src>gps</src><sat>8</sat><hdop>1.0</hdop><vdop>0.8</vdop><pdop>1.3</pdop></trkpt>
			<trkpt lat="51.05725453" lon="4.6698334"><ele>79.0</ele><time>2016-11-10T10:47:57Z</time><course>16.9</course><speed>4.814156</speed><geoidheight>47.0</geoidheight><src>gps</src><sat>8</sat><hdop>1.1</hdop><vdop>0.9</vdop><pdop>1.5</pdop></trkpt>
			<trkpt lat="51.0541477" lon="4.6701903"><time>2016-11-10T10:47:57Z</time><src>network</src></trkpt>
			<trkpt lat="51.05751295" lon="4.67003829"><ele>78.0</ele><time>2016-11-10T10:48:09Z</time><course>79.0</course><speed>3.9506202</speed><geoidheight>47.0</geoidheight><src>gps</src><sat>12</sat><hdop>1.7</hdop><vdop>1.0</vdop><pdop>2.0</pdop></trkpt>
			<trkpt lat="51.05754396" lon="4.67040738"><ele>77.0</ele><time>2016-11-10T10:48:15Z</time><course>76.6</course><speed>4.293367</speed><geoidheight>47.0</geoidheight><src>gps</src><sat>6</sat><hdop>0.8</hdop><vdop>0.8</vdop><pdop>1.1</pdop></trkpt>
			<trkpt lat="51.0541477" lon="4.6701903"><time>2016-11-10T10:48:14Z</time><src>network</src></trkpt>
			<trkpt lat="51.05748507" lon="4.67068892"><ele>84.0</ele><time>2016-11-10T10:48:23Z</time><course>147.3</course><speed>3.7124789</speed><geoidheight>47.0</geoidheight><src>gps</src><sat>7</sat><hdop>1.5</hdop><vdop>0.9</vdop><pdop>1.7</pdop></trkpt>
			<trkpt lat="51.05737845" lon="4.67081383"><ele>79.0</ele><time>2016-11-10T10:48:26Z</time><course>147.1</course><speed>4.8845167</speed><geoidheight>47.0</geoidheight><src>gps</src><sat>2</sat><hdop>1.1</hdop><vdop>0.9</vdop><pdop>1.4</pdop></trkpt>
			<trkpt lat="51.05726334" lon="4.67088739"><ele>76.0</ele><time>2016-11-10T10:48:28Z</time><course>150.0</course><speed>5.3354006</speed><geoidheight>47.0</geoidheight><src>gps</src><sat>5</sat><hdop>1.4</hdop><vdop>0.9</vdop><pdop>1.6</pdop></trkpt>
			<trkpt lat="51.05719148" lon="4.67096896"><ele>76.0</ele><time>2016-11-10T10:48:30Z</time><course>152.9</course><speed>4.200583</speed><geoidheight>47.0</geoidheight><src>gps</src><sat>3</sat><hdop>1.1</hdop><vdop>0.8</vdop><pdop>1.4</pdop></trkpt>
			<trkpt lat="51.0508267" lon="4.6633025"><time>2016-11-10T10:48:32Z</time><src>network</src></trkpt>
			<trkpt lat="51.05714079" lon="4.67110062"><ele>76.0</ele><time>2016-11-10T10:48:34Z</time><course>146.8</course><speed>2.279693</speed><geoidheight>47.0</geoidheight><src>gps</src><sat>3</sat><hdop>1.2</hdop><vdop>0.8</vdop><pdop>1.4</pdop></trkpt>
			<trkpt lat="51.05711994" lon="4.67103085"><ele>75.0</ele><time>2016-11-10T10:48:36Z</time><course>244.9</course><speed>3.0619764</speed><geoidheight>47.0</geoidheight><src>gps</src><sat>7</sat><hdop>1.4</hdop><vdop>0.9</vdop><pdop>1.7</pdop></trkpt>
			<trkpt lat="51.05709125" lon="4.67090187"><ele>77.0</ele><time>2016-11-10T10:48:39Z</time><course>238.8</course><speed>4.2600474</speed><geoidheight>47.0</geoidheight><src>gps</src><sat>7</sat><hdop>1.9</hdop><vdop>1.0</vdop><pdop>2.2</pdop></trkpt>
			<trkpt lat="51.0541477" lon="4.6701903"><time>2016-11-10T10:48:40Z</time><src>network</src></trkpt>
			<trkpt lat="51.05703972" lon="4.67064231"><ele>78.0</ele><time>2016-11-10T10:48:43Z</time><course>263.4</course><speed>4.083136</speed><geoidheight>47.0</geoidheight><src>gps</src><sat>8</sat><hdop>1.1</hdop><vdop>0.9</vdop><pdop>1.5</pdop></trkpt>
			<trkpt lat="51.05698148" lon="4.67052803"><ele>77.0</ele><time>2016-11-10T10:48:45Z</time><course>232.2</course><speed>3.992706</speed><geoidheight>47.0</geoidheight><src>gps</src><sat>8</sat><hdop>1.5</hdop><vdop>0.9</vdop><pdop>1.7</pdop></trkpt>
			<trkpt lat="51.0508267" lon="4.6633025"><time>2016-11-10T10:48:51Z</time><src>network</src></trkpt>
			<trkpt lat="51.05681131" lon="4.67023938"><ele>65.0</ele><time>2016-11-10T10:48:53Z</time><course>222.9</course><speed>4.016167</speed><geoidheight>47.0</geoidheight><src>gps</src><sat>4</sat><hdop>1.3</hdop><vdop>0.9</vdop><pdop>1.6</pdop></trkpt>
			<trkpt lat="51.05655899" lon="4.6702104"><ele>73.0</ele><time>2016-11-10T10:49:01Z</time><course>134.1</course><speed>4.1369677</speed><geoidheight>47.0</geoidheight><src>gps</src><sat>15</sat><hdop>1.5</hdop><vdop>0.9</vdop><pdop>1.8</pdop></trkpt>
			<trkpt lat="51.05651863" lon="4.67027746"><ele>74.0</ele><time>2016-11-10T10:49:02Z</time><course>125.6</course><speed>4.7626886</speed><geoidheight>47.0</geoidheight><src>gps</src><sat>15</sat><hdop>0.6</hdop><vdop>0.7</vdop><pdop>0.9</pdop></trkpt>
			<trkpt lat="51.0541477" lon="4.6701903"><time>2016-11-10T10:49:02Z</time><src>network</src></trkpt>
			<trkpt lat="51.0562881" lon="4.67069059"><ele>76.0</ele><time>2016-11-10T10:49:09Z</time><course>135.5</course><speed>6.04795</speed><geoidheight>47.0</geoidheight><src>gps</src><sat>6</sat><hdop>1.3</hdop><vdop>0.9</vdop><pdop>1.6</pdop></trkpt>
			<trkpt lat="51.05619782" lon="4.67080878"><ele>78.0</ele><time>2016-11-10T10:49:12Z</time><course>169.6</course><speed>5.8600345</speed><geoidheight>47.0</geoidheight><src>gps</src><sat>6</sat><hdop>1.3</hdop><vdop>0.9</vdop><pdop>1.6</pdop></trkpt>
			<trkpt lat="51.05606567" lon="4.6708085"><ele>80.0</ele><time>2016-11-10T10:49:14Z</time><course>198.1</course><speed>5.860077</speed><geoidheight>47.0</geoidheight><src>gps</src><sat>7</sat><hdop>1.5</hdop><vdop>0.9</vdop><pdop>1.8</pdop></trkpt>
			<trkpt lat="51.05596556" lon="4.67075217"><ele>80.0</ele><time>2016-11-10T10:49:16Z</time><course>207.0</course><speed>5.550144</speed><geoidheight>47.0</geoidheight><src>gps</src><sat>5</sat><hdop>1.4</hdop><vdop>0.9</vdop><pdop>1.6</pdop></trkpt>
			<trkpt lat="51.05566538" lon="4.67053415"><ele>85.0</ele><time>2016-11-10T10:49:23Z</time><course>208.5</course><speed>5.594328</speed><geoidheight>47.0</geoidheight><src>gps</src><sat>4</sat><hdop>1.5</hdop><vdop>1.0</vdop><pdop>1.8</pdop></trkpt>
			<trkpt lat="51.05548342" lon="4.67035901"><ele>85.0</ele><time>2016-11-10T10:49:27Z</time><course>210.4</course><speed>5.2613688</speed><geoidheight>47.0</geoidheight><src>gps</src><sat>9</sat><hdop>1.3</hdop><vdop>0.9</vdop><pdop>1.6</pdop></trkpt>
			<trkpt lat="51.0452792" lon="4.6548593"><time>2016-11-10T10:49:30Z</time><src>network</src></trkpt>
			<trkpt lat="51.0544155" lon="4.6686021"><time>2016-11-10T18:29:35Z</time><src>network</src></trkpt>
			<trkpt lat="51.05446438" lon="4.66876632"><ele>72.0</ele><time>2016-11-10T18:29:56Z</time><speed>0.0</speed><src>gps</src><sat>7</sat></trkpt>
			<trkpt lat="51.0543508" lon="4.66877"><time>2016-11-10T18:30:01Z</time><src>network</src></trkpt>
			<trkpt lat="51.05454637" lon="4.66898999"><ele>75.0</ele><time>2016-11-10T18:30:05Z</time><course>47.7</course><speed>4.430045</speed><geoidheight>47.0</geoidheight><src>gps</src><sat>16</sat><hdop>1.2</hdop><vdop>0.8</vdop><pdop>1.5</pdop></trkpt>
			<trkpt lat="51.05464413" lon="4.66915597"><ele>71.0</ele><time>2016-11-10T18:30:06Z</time><course>48.6</course><speed>5.0501585</speed><geoidheight>47.0</geoidheight><src>gps</src><sat>3</sat><hdop>0.7</hdop><vdop>0.7</vdop><pdop>1.0</pdop></trkpt>
			<trkpt lat="51.0541477" lon="4.6701903"><time>2016-11-10T18:30:13Z</time><src>network</src></trkpt>
			<trkpt lat="51.05497667" lon="4.66971158"><ele>61.0</ele><time>2016-11-10T18:30:16Z</time><course>49.7</course><speed>5.622882</speed><geoidheight>47.0</geoidheight><src>gps</src><sat>12</sat><hdop>6.8</hdop><vdop>1.0</vdop><pdop>6.9</pdop></trkpt>
			<trkpt lat="51.0541477" lon="4.6701903"><time>2016-11-10T18:30:21Z</time><src>network</src></trkpt>
			<trkpt lat="51.05530161" lon="4.67017021"><ele>67.0</ele><time>2016-11-10T18:30:24Z</time><course>33.3</course><speed>5.800009</speed><geoidheight>47.0</geoidheight><src>gps</src><sat>7</sat><hdop>0.9</hdop><vdop>0.7</vdop><pdop>1.1</pdop></trkpt>
			<trkpt lat="51.05546331" lon="4.67020609"><ele>81.0</ele><time>2016-11-10T18:30:26Z</time><course>29.4</course><speed>5.530443</speed><geoidheight>47.0</geoidheight><src>gps</src><sat>4</sat><hdop>1.5</hdop><vdop>0.9</vdop><pdop>1.8</pdop></trkpt>
			<trkpt lat="51.05556324" lon="4.67032272"><ele>82.0</ele><time>2016-11-10T18:30:28Z</time><course>32.3</course><speed>5.3200097</speed><geoidheight>47.0</geoidheight><src>gps</src><sat>8</sat><hdop>1.4</hdop><vdop>0.9</vdop><pdop>1.7</pdop></trkpt>
			<trkpt lat="51.05567128" lon="4.67042032"><ele>83.0</ele><time>2016-11-10T18:30:30Z</time><course>28.6</course><speed>5.1028323</speed><geoidheight>47.0</geoidheight><src>gps</src><sat>8</sat><hdop>1.6</hdop><vdop>0.9</vdop><pdop>1.8</pdop></trkpt>
			<trkpt lat="51.055524" lon="4.6705193"><time>2016-11-10T18:30:32Z</time><src>network</src></trkpt>
			<trkpt lat="51.0557595" lon="4.67055386"><ele>81.0</ele><time>2016-11-10T18:30:34Z</time><course>34.4</course><speed>3.83</speed><geoidheight>47.0</geoidheight><src>gps</src><sat>4</sat><hdop>2.0</hdop><vdop>0.9</vdop><pdop>2.2</pdop></trkpt>
			<trkpt lat="51.05580169" lon="4.67067548"><ele>76.0</ele><time>2016-11-10T18:30:36Z</time><course>53.7</course><speed>4.3483906</speed><geoidheight>47.0</geoidheight><src>gps</src><sat>4</sat><hdop>1.6</hdop><vdop>1.0</vdop><pdop>1.9</pdop></trkpt>
			<trkpt lat="51.05570218" lon="4.67072548"><ele>78.0</ele><time>2016-11-10T18:30:39Z</time><course>122.1</course><speed>3.5627515</speed><geoidheight>47.0</geoidheight><src>gps</src><sat>4</sat><hdop>16.7</hdop><vdop>0.9</vdop><pdop>16.7</pdop></trkpt>
			<trkpt lat="51.05564638" lon="4.67082243"><ele>78.0</ele><time>2016-11-10T18:30:42Z</time><course>120.8</course><speed>4.3433285</speed><geoidheight>47.0</geoidheight><src>gps</src><sat>5</sat><hdop>1.5</hdop><vdop>1.0</vdop><pdop>1.8</pdop></trkpt>
			<trkpt lat="51.05561094" lon="4.67098272"><ele>71.0</ele><time>2016-11-10T18:30:44Z</time><course>107.3</course><speed>4.0843115</speed><geoidheight>47.0</geoidheight><src>gps</src><sat>4</sat><hdop>1.4</hdop><vdop>0.9</vdop><pdop>1.7</pdop></trkpt>
			<trkpt lat="51.05558589" lon="4.67154888"><ele>74.0</ele><time>2016-11-10T18:30:51Z</time><course>88.7</course><speed>5.341835</speed><geoidheight>47.0</geoidheight><src>gps</src><sat>12</sat><hdop>1.7</hdop><vdop>0.9</vdop><pdop>2.0</pdop></trkpt>
			<trkpt lat="51.05559265" lon="4.67171399"><ele>75.0</ele><time>2016-11-10T18:30:52Z</time><course>88.4</course><speed>5.9304132</speed><geoidheight>47.0</geoidheight><src>gps</src><sat>4</sat><hdop>0.8</hdop><vdop>0.7</vdop><pdop>1.1</pdop></trkpt>
			<trkpt lat="51.0555352" lon="4.6712635"><time>2016-11-10T18:30:59Z</time><src>network</src></trkpt>
			<trkpt lat="51.05547697" lon="4.67213391"><ele>64.0</ele><time>2016-11-10T18:31:01Z</time><course>123.0</course><speed>5.3354006</speed><geoidheight>47.0</geoidheight><src>gps</src><sat>4</sat><hdop>1.7</hdop><vdop>0.8</vdop><pdop>1.8</pdop></trkpt>
			<trkpt lat="51.05541387" lon="4.67230049"><ele>62.0</ele><time>2016-11-10T18:31:03Z</time><course>135.7</course><speed>5.331135</speed><geoidheight>47.0</geoidheight><src>gps</src><sat>4</sat><hdop>1.2</hdop><vdop>0.9</vdop><pdop>1.5</pdop></trkpt>
			<trkpt lat="51.0554029" lon="4.6725281"><time>2016-11-10T18:31:09Z</time><src>network</src></trkpt>
			<trkpt lat="51.05512533" lon="4.67263472"><ele>61.0</ele><time>2016-11-10T18:31:11Z</time><course>166.9</course><speed>5.8844967</speed><geoidheight>47.0</geoidheight><src>gps</src><sat>4</sat><hdop>1.6</hdop><vdop>0.9</vdop><pdop>1.8</pdop></trkpt>
			<trkpt lat="51.05494636" lon="4.67269695"><ele>63.0</ele><time>2016-11-10T18:31:13Z</time><course>180.1</course><speed>6.020008</speed><geoidheight>47.0</geoidheight><src>gps</src><sat>4</sat><hdop>1.9</hdop><vdop>0.9</vdop><pdop>2.1</pdop></trkpt>
			<trkpt lat="51.05484455" lon="4.6726745"><ele>69.0</ele><time>2016-11-10T18:31:16Z</time><course>187.6</course><speed>5.81086</speed><geoidheight>47.0</geoidheight><src>gps</src><sat>4</sat><hdop>1.3</hdop><vdop>0.9</vdop><pdop>1.6</pdop></trkpt>
			<trkpt lat="51.0554029" lon="4.6725281"><time>2016-11-10T18:31:18Z</time><src>network</src></trkpt>
			<trkpt lat="51.05447629" lon="4.67248102"><ele>78.0</ele><time>2016-11-10T18:31:24Z</time><course>209.7</course><speed>5.482636</speed><geoidheight>47.0</geoidheight><src>gps</src><sat>7</sat><hdop>1.1</hdop><vdop>0.8</vdop><pdop>1.3</pdop></trkpt>
			<trkpt lat="51.05436104" lon="4.67238625"><ele>81.0</ele><time>2016-11-10T18:31:26Z</time><course>210.2</course><speed>5.6501417</speed><geoidheight>47.0</geoidheight><src>gps</src><sat>7</sat><hdop>1.1</hdop><vdop>0.8</vdop><pdop>1.3</pdop></trkpt>
			<trkpt lat="51.05422913" lon="4.67229207"><ele>80.0</ele><time>2016-11-10T18:31:28Z</time><course>208.1</course><speed>5.851034</speed><geoidheight>47.0</geoidheight><src>gps</src><sat>7</sat><hdop>1.3</hdop><vdop>0.9</vdop><pdop>1.5</pdop></trkpt>
			<trkpt lat="51.05414459" lon="4.67221395"><ele>78.0</ele><time>2016-11-10T18:31:31Z</time><course>214.9</course><speed>5.430451</speed><geoidheight>47.0</geoidheight><src>gps</src><sat>6</sat><hdop>2.1</hdop><vdop>0.9</vdop><pdop>2.3</pdop></trkpt>
			<trkpt lat="51.05405747" lon="4.67209616"><ele>75.0</ele><time>2016-11-10T18:31:33Z</time><course>211.6</course><speed>5.6305685</speed><geoidheight>47.0</geoidheight><src>gps</src><sat>5</sat><hdop>1.9</hdop><vdop>1.0</vdop><pdop>2.2</pdop></trkpt>
			<trkpt lat="51.05393995" lon="4.67202434"><ele>74.0</ele><time>2016-11-10T18:31:35Z</time><course>208.6</course><speed>5.8601365</speed><geoidheight>47.0</geoidheight><src>gps</src><sat>5</sat><hdop>2.2</hdop><vdop>0.9</vdop><pdop>2.4</pdop></trkpt>
			<trkpt lat="51.0542702" lon="4.6722397"><time>2016-11-10T18:31:28Z</time><src>network</src></trkpt>
			<trkpt lat="51.05380003" lon="4.67198017"><ele>77.0</ele><time>2016-11-10T18:31:39Z</time><course>193.2</course><speed>5.5503244</speed><geoidheight>47.0</geoidheight><src>gps</src><sat>5</sat><hdop>2.1</hdop><vdop>0.9</vdop><pdop>2.3</pdop></trkpt>
			<trkpt lat="51.05368425" lon="4.6719415"><ele>72.0</ele><time>2016-11-10T18:31:41Z</time><course>173.9</course><speed>5.816743</speed><geoidheight>47.0</geoidheight><src>gps</src><sat>5</sat><hdop>1.3</hdop><vdop>0.9</vdop><pdop>1.6</pdop></trkpt>
			<trkpt lat="51.05355843" lon="4.67199948"><ele>70.0</ele><time>2016-11-10T18:31:44Z</time><course>158.4</course><speed>6.2613497</speed><geoidheight>47.0</geoidheight><src>gps</src><sat>4</sat><hdop>1.3</hdop><vdop>0.9</vdop><pdop>1.6</pdop></trkpt>
			<trkpt lat="51.0542702" lon="4.6722397"><time>2016-11-10T18:31:38Z</time><src>network</src></trkpt>
			<trkpt lat="51.0533825" lon="4.67216255"><ele>66.0</ele><time>2016-11-10T18:31:48Z</time><course>144.2</course><speed>6.113608</speed><geoidheight>47.0</geoidheight><src>gps</src><sat>6</sat><hdop>2.5</hdop><vdop>1.0</vdop><pdop>2.7</pdop></trkpt>
			<trkpt lat="51.05313213" lon="4.67240013"><ele>62.0</ele><time>2016-11-10T18:31:53Z</time><course>142.4</course><speed>6.0994835</speed><geoidheight>47.0</geoidheight><src>gps</src><sat>7</sat><hdop>1.2</hdop><vdop>0.9</vdop><pdop>1.5</pdop></trkpt>
			<trkpt lat="51.0462962" lon="4.662151"><time>2016-11-10T18:31:55Z</time><src>network</src></trkpt>
			<trkpt lat="51.0529605" lon="4.67260153"><ele>64.0</ele><time>2016-11-10T18:31:57Z</time><course>147.9</course><speed>5.8700767</speed><geoidheight>47.0</geoidheight><src>gps</src><sat>8</sat><hdop>1.4</hdop><vdop>0.8</vdop><pdop>1.6</pdop></trkpt>
			<trkpt lat="51.05286576" lon="4.67267701"><ele>66.0</ele><time>2016-11-10T18:31:59Z</time><course>153.9</course><speed>5.7312565</speed><geoidheight>47.0</geoidheight><src>gps</src><sat>4</sat><hdop>1.0</hdop><vdop>0.8</vdop><pdop>1.3</pdop></trkpt>
			<trkpt lat="51.05277606" lon="4.6727403"><ele>67.0</ele><time>2016-11-10T18:32:01Z</time><course>186.7</course><speed>5.2034698</speed><geoidheight>47.0</geoidheight><src>gps</src><sat>4</sat><hdop>1.5</hdop><vdop>0.8</vdop><pdop>1.7</pdop></trkpt>
			<trkpt lat="51.0462962" lon="4.662151"><time>2016-11-10T18:32:03Z</time><src>network</src></trkpt>
			<trkpt lat="51.05259235" lon="4.67264825"><ele>66.0</ele><time>2016-11-10T18:32:05Z</time><course>214.6</course><speed>5.5210958</speed><geoidheight>47.0</geoidheight><src>gps</src><sat>5</sat><hdop>1.5</hdop><vdop>0.9</vdop><pdop>1.8</pdop></trkpt>
			<trkpt lat="51.05248899" lon="4.67254385"><ele>64.0</ele><time>2016-11-10T18:32:07Z</time><course>211.4</course><speed>5.8012414</speed><geoidheight>47.0</geoidheight><src>gps</src><sat>5</sat><hdop>1.2</hdop><vdop>0.8</vdop><pdop>1.4</pdop></trkpt>
			<trkpt lat="51.05238192" lon="4.67244239"><ele>64.0</ele><time>2016-11-10T18:32:10Z</time><course>210.8</course><speed>5.9833436</speed><geoidheight>47.0</geoidheight><src>gps</src><sat>5</sat><hdop>1.1</hdop><vdop>0.9</vdop><pdop>1.4</pdop></trkpt>
			<trkpt lat="51.0452792" lon="4.6548593"><time>2016-11-10T18:32:11Z</time><src>network</src></trkpt>
			<trkpt lat="51.05220116" lon="4.67230081"><ele>65.0</ele><time>2016-11-10T18:32:13Z</time><course>204.9</course><speed>5.850419</speed><geoidheight>47.0</geoidheight><src>gps</src><sat>7</sat><hdop>1.7</hdop><vdop>0.8</vdop><pdop>1.8</pdop></trkpt>
			<trkpt lat="51.05208725" lon="4.67224963"><ele>64.0</ele><time>2016-11-10T18:32:15Z</time><course>190.4</course><speed>5.731963</speed><geoidheight>47.0</geoidheight><src>gps</src><sat>2</sat><hdop>1.3</hdop><vdop>0.9</vdop><pdop>1.6</pdop></trkpt>
			<trkpt lat="51.0452792" lon="4.6548593"><time>2016-11-10T18:32:21Z</time><src>network</src></trkpt>
			<trkpt lat="51.05172313" lon="4.67242079"><ele>73.0</ele><time>2016-11-10T18:32:23Z</time><course>144.2</course><speed>5.99368</speed><geoidheight>47.0</geoidheight><src>gps</src><sat>2</sat><hdop>1.2</hdop><vdop>0.8</vdop><pdop>1.4</pdop></trkpt>
			<trkpt lat="51.0516182" lon="4.67254605"><ele>75.0</ele><time>2016-11-10T18:32:25Z</time><course>147.2</course><speed>6.0400743</speed><geoidheight>47.0</geoidheight><src>gps</src><sat>6</sat><hdop>1.2</hdop><vdop>0.8</vdop><pdop>1.5</pdop></trkpt>
			<trkpt lat="51.05149066" lon="4.67268667"><ele>72.0</ele><time>2016-11-10T18:32:28Z</time><course>144.8</course><speed>6.400781</speed><geoidheight>47.0</geoidheight><src>gps</src><sat>4</sat><hdop>1.2</hdop><vdop>0.8</vdop><pdop>1.4</pdop></trkpt>
			<trkpt lat="51.05132601" lon="4.67280842"><ele>62.0</ele><time>2016-11-10T18:32:32Z</time><course>146.8</course><speed>6.2935047</speed><geoidheight>47.0</geoidheight><src>gps</src><sat>15</sat><hdop>2.4</hdop><vdop>1.0</vdop><pdop>2.6</pdop></trkpt>
			<trkpt lat="51.05123295" lon="4.67290126"><ele>63.0</ele><time>2016-11-10T18:32:33Z</time><course>146.8</course><speed>6.290127</speed><geoidheight>47.0</geoidheight><src>gps</src><sat>15</sat><hdop>0.7</hdop><vdop>0.7</vdop><pdop>0.9</pdop></trkpt>
			<trkpt lat="51.05112439" lon="4.67294687"><ele>63.0</ele><time>2016-11-10T18:32:36Z</time><course>167.9</course><speed>5.7801385</speed><geoidheight>47.0</geoidheight><src>gps</src><hdop>0.7</hdop><vdop>0.7</vdop><pdop>0.9</pdop></trkpt>
			<trkpt lat="51.0509802" lon="4.67298608"><ele>66.0</ele><time>2016-11-10T18:32:38Z</time><course>175.6</course><speed>6.1009917</speed><geoidheight>47.0</geoidheight><src>gps</src><sat>6</sat><hdop>1.5</hdop><vdop>1.0</vdop><pdop>1.8</pdop></trkpt>
			<trkpt lat="51.05079962" lon="4.67299657"><ele>63.0</ele><time>2016-11-10T18:32:41Z</time><course>183.8</course><speed>6.180979</speed><geoidheight>47.0</geoidheight><src>gps</src><sat>5</sat><hdop>1.9</hdop><vdop>1.0</vdop><pdop>2.1</pdop></trkpt>
			<trkpt lat="51.05053477" lon="4.67292355"><ele>64.0</ele><time>2016-11-10T18:32:46Z</time><course>193.9</course><speed>5.7404265</speed><geoidheight>47.0</geoidheight><src>gps</src><sat>4</sat><hdop>1.6</hdop><vdop>1.0</vdop><pdop>1.9</pdop></trkpt>
			<trkpt lat="51.05038075" lon="4.6728358"><ele>67.0</ele><time>2016-11-10T18:32:48Z</time><course>198.2</course><speed>5.510581</speed><geoidheight>47.0</geoidheight><src>gps</src><sat>7</sat><hdop>3.5</hdop><vdop>1.0</vdop><pdop>3.6</pdop></trkpt>
			<trkpt lat="51.05025132" lon="4.67273905"><ele>66.0</ele><time>2016-11-10T18:32:51Z</time><course>197.1</course><speed>5.850034</speed><geoidheight>47.0</geoidheight><src>gps</src><sat>6</sat><hdop>2.8</hdop><vdop>1.0</vdop><pdop>3.0</pdop></trkpt>
			<trkpt lat="51.05006987" lon="4.67271816"><ele>62.0</ele><time>2016-11-10T18:32:56Z</time><course>197.5</course><speed>5.6000357</speed><geoidheight>47.0</geoidheight><src>gps</src><sat>6</sat><hdop>2.8</hdop><vdop>1.0</vdop><pdop>3.0</pdop></trkpt>
			<trkpt lat="51.04989529" lon="4.67274396"><ele>62.0</ele><time>2016-11-10T18:32:59Z</time><course>154.2</course><speed>4.270012</speed><geoidheight>47.0</geoidheight><src>gps</src><sat>6</sat><hdop>1.2</hdop><vdop>0.8</vdop><pdop>1.5</pdop></trkpt>
			<trkpt lat="51.04970192" lon="4.67320962"><ele>61.0</ele><time>2016-11-10T18:33:09Z</time><course>113.2</course><speed>3.2661293</speed><geoidheight>47.0</geoidheight><src>gps</src><sat>2</sat><hdop>2.5</hdop><vdop>1.0</vdop><pdop>2.7</pdop></trkpt>
			<trkpt lat="51.04967401" lon="4.6732233"><ele>60.0</ele><time>2016-11-10T18:33:10Z</time><course>131.7</course><speed>2.5709531</speed><geoidheight>47.0</geoidheight><src>gps</src><sat>3</sat><hdop>2.9</hdop><vdop>1.0</vdop><pdop>3.1</pdop></trkpt>
			<trkpt lat="51.0495721" lon="4.6732356"><time>2016-11-10T18:34:01Z</time><src>network</src></trkpt>
			<trkpt lat="51.0495721" lon="4.6732356"><time>2016-11-10T18:34:45Z</time><src>network</src></trkpt>
		</trkseg>
	</trk>
</gpx>